%YAML 1.1
%TAG !u! tag:unity3d.com,2011:
--- !u!1045 &1
EditorBuildSettings:
  m_ObjectHideFlags: 0
  serializedVersion: 2
  m_Scenes:
  - enabled: 1
    path: Assets/Scenes/MainMenu.unity
    guid: 6e5f14a64d1250844b6edbfd9d64e622
  - enabled: 1
    path: Assets/Scenes/SampleScene.unity
    guid: 9fc0d4010bbf28b4594072e72b8655ab
  - enabled: 1
    path: Assets/Scenes/win.unity
    guid: c56b9d976a4bfd4459a09c7a5b3ef5ed
  - enabled: 1
    path: Assets/Scenes/Level2.unity
    guid: 61ff2429d0803084c9db2ee8f4b0de97
  - enabled: 1
    path: Assets/Scenes/SampleScene 1.unity
    guid: 066879db47f40db40babe4588ed9cc7e
  m_configObjects: {}
