%YAML 1.1
%TAG !u! tag:unity3d.com,2011:
--- !u!114 &11400000
MonoBehaviour:
  m_ObjectHideFlags: 0
  m_CorrespondingSourceObject: {fileID: 0}
  m_PrefabInstance: {fileID: 0}
  m_PrefabAsset: {fileID: 0}
  m_GameObject: {fileID: 0}
  m_Enabled: 1
  m_EditorHideFlags: 0
  m_Script: {fileID: 11500000, guid: 620881941fb4ad441b2beaa0ff70e9bb, type: 3}
  m_Name: explodingEnemies
  m_EditorClassIdentifier: 
  enemies:
  - {fileID: 6137500319154904999, guid: 93d9878fda1d67d4a975840b04e203b4, type: 3}
  - {fileID: 6137500319154904999, guid: 93d9878fda1d67d4a975840b04e203b4, type: 3}
  - {fileID: 6137500319154904999, guid: 93d9878fda1d67d4a975840b04e203b4, type: 3}
