%YAML 1.1
%TAG !u! tag:unity3d.com,2011:
--- !u!114 &11400000
MonoBehaviour:
  m_ObjectHideFlags: 0
  m_CorrespondingSourceObject: {fileID: 0}
  m_PrefabInstance: {fileID: 0}
  m_PrefabAsset: {fileID: 0}
  m_GameObject: {fileID: 0}
  m_Enabled: 1
  m_EditorHideFlags: 0
  m_Script: {fileID: 11500000, guid: 620881941fb4ad441b2beaa0ff70e9bb, type: 3}
  m_Name: mixed 1
  m_EditorClassIdentifier: 
  enemies:
  - {fileID: 3205588320087843039, guid: e240e9718ed5c124486dbb9ce79d375d, type: 3}
  - {fileID: 2705059360017392198, guid: 48cc798c82e36554c87ac711b7f67d6f, type: 3}
  - {fileID: 3205588320087843039, guid: e240e9718ed5c124486dbb9ce79d375d, type: 3}
  - {fileID: 2705059360017392198, guid: 48cc798c82e36554c87ac711b7f67d6f, type: 3}
