%YAML 1.1
%TAG !u! tag:unity3d.com,2011:
--- !u!1 &195292118056775919
GameObject:
  m_ObjectHideFlags: 0
  m_CorrespondingSourceObject: {fileID: 0}
  m_PrefabInstance: {fileID: 0}
  m_PrefabAsset: {fileID: 0}
  serializedVersion: 6
  m_Component:
  - component: {fileID: 195292118056775921}
  - component: {fileID: 195292118056775918}
  m_Layer: 0
  m_Name: ComboSystem
  m_TagString: Untagged
  m_Icon: {fileID: 0}
  m_NavMeshLayer: 0
  m_StaticEditorFlags: 0
  m_IsActive: 1
--- !u!4 &195292118056775921
Transform:
  m_ObjectHideFlags: 0
  m_CorrespondingSourceObject: {fileID: 0}
  m_PrefabInstance: {fileID: 0}
  m_PrefabAsset: {fileID: 0}
  m_GameObject: {fileID: 195292118056775919}
  m_LocalRotation: {x: 0, y: 0, z: 0, w: 1}
  m_LocalPosition: {x: -0.7891591, y: 0.14839987, z: -0.046884935}
  m_LocalScale: {x: 1, y: 1, z: 1}
  m_Children: []
  m_Father: {fileID: 0}
  m_RootOrder: 0
  m_LocalEulerAnglesHint: {x: 0, y: 0, z: 0}
--- !u!114 &195292118056775918
MonoBehaviour:
  m_ObjectHideFlags: 0
  m_CorrespondingSourceObject: {fileID: 0}
  m_PrefabInstance: {fileID: 0}
  m_PrefabAsset: {fileID: 0}
  m_GameObject: {fileID: 195292118056775919}
  m_Enabled: 1
  m_EditorHideFlags: 0
  m_Script: {fileID: 11500000, guid: c79add02ae9582641acec7ae23818bab, type: 3}
  m_Name: 
  m_EditorClassIdentifier: 
  comboMeter: {fileID: 0}
  comboLevel: 0
  comboImages:
  - {fileID: 21300000, guid: 984cd40f2fa94f844b1b5e4456889265, type: 3}
  - {fileID: 21300000, guid: 8984eb6ae418c274b9962a1f562dd2c5, type: 3}
  - {fileID: 21300000, guid: 7a9d0e15d41aa6b49abd90380d9075b1, type: 3}
  - {fileID: 21300000, guid: 31aa28abac90362409af12b40495a20e, type: 3}
  - {fileID: 21300000, guid: f5231790e221d4749868a891fb8a3929, type: 3}
  - {fileID: 21300000, guid: 344efd2e2cda24d4aa71a6d110ed7bcd, type: 3}
  comboDecayRate: 5
  comboDecayDelay: 1
  delayTimer: 0
  currentScore: 0
  decaying: 0
  isComboing: 0
  imageHolder: {fileID: 0}
  scoreCache: 0
